{
  "examples": {
    "searchAll": {
      "endpoint": "GET /api/products/search",
      "description": "Get all products with default pagination",
      "curl": "curl -X GET 'http://localhost:8081/api/products/search' -H 'Authorization: Bearer <token>'"
    },
    "searchByQuery": {
      "endpoint": "GET /api/products/search?query=iPhone",
      "description": "Search products by name or description",
      "curl": "curl -X GET 'http://localhost:8081/api/products/search?query=iPhone' -H 'Authorization: Bearer <token>'"
    },
    "searchByCategory": {
      "endpoint": "GET /api/products/search?category=Electronics",
      "description": "Filter products by category",
      "curl": "curl -X GET 'http://localhost:8081/api/products/search?category=Electronics' -H 'Authorization: Bearer <token>'"
    },
    "searchPublished": {
      "endpoint": "GET /api/products/search?published=true",
      "description": "Get only published products",
      "curl": "curl -X GET 'http://localhost:8081/api/products/search?published=true' -H 'Authorization: Bearer <token>'"
    },
    "searchWithPagination": {
      "endpoint": "GET /api/products/search?page=1&limit=10",
      "description": "Get second page with 10 items per page",
      "curl": "curl -X GET 'http://localhost:8081/api/products/search?page=1&limit=10' -H 'Authorization: Bearer <token>'"
    },
    "searchCombinedFilters": {
      "endpoint": "GET /api/products/search?query=phone&category=Electronics&published=true&page=0&limit=20",
      "description": "Combine multiple filters",
      "curl": "curl -X GET 'http://localhost:8081/api/products/search?query=phone&category=Electronics&published=true&page=0&limit=20' -H 'Authorization: Bearer <token>'"
    },
    "getSuggestions": {
      "endpoint": "GET /api/products/suggestions?query=iP",
      "description": "Get autocomplete suggestions for 'iP'",
      "curl": "curl -X GET 'http://localhost:8081/api/products/suggestions?query=iP' -H 'Authorization: Bearer <token>'"
    }
  },
  "sampleResponses": {
    "searchResponse": {
      "products": [
        {
          "id": "550e8400-e29b-41d4-a716-446655440000",
          "name": "iPhone 15 Pro",
          "description": "Latest iPhone with A17 Pro chip, 256GB storage",
          "categoryId": "660e8400-e29b-41d4-a716-446655440001",
          "categoryName": "Electronics",
          "defaultPrice": 1200.00,
          "buyingPrice": 1000.00,
          "sellingPrice": 1200.00,
          "lastSellPrice": 1200.00,
          "isPublished": true,
          "weightKg": 0.187,
          "dimensions": "146.6 x 70.6 x 7.8 mm",
          "productPhotos": [
            {
              "id": "770e8400-e29b-41d4-a716-446655440002",
              "url": "https://example.com/images/iphone15pro-front.jpg"
            },
            {
              "id": "770e8400-e29b-41d4-a716-446655440003",
              "url": "https://example.com/images/iphone15pro-back.jpg"
            }
          ],
          "isActive": true,
          "usageCount": 42,
          "lastUsedAt": "2025-12-01T10:30:00Z",
          "companyId": "880e8400-e29b-41d4-a716-446655440004",
          "companyName": "Tech Solutions Co."
        },
        {
          "id": "550e8400-e29b-41d4-a716-446655440005",
          "name": "iPhone 15",
          "description": "iPhone 15 with A16 Bionic chip, 128GB storage",
          "categoryId": "660e8400-e29b-41d4-a716-446655440001",
          "categoryName": "Electronics",
          "defaultPrice": 999.00,
          "buyingPrice": 850.00,
          "sellingPrice": 999.00,
          "lastSellPrice": 999.00,
          "isPublished": true,
          "weightKg": 0.171,
          "dimensions": "147.6 x 71.6 x 7.8 mm",
          "productPhotos": [
            {
              "id": "770e8400-e29b-41d4-a716-446655440006",
              "url": "https://example.com/images/iphone15.jpg"
            }
          ],
          "isActive": true,
          "usageCount": 28,
          "lastUsedAt": "2025-11-30T15:45:00Z",
          "companyId": "880e8400-e29b-41d4-a716-446655440004",
          "companyName": "Tech Solutions Co."
        }
      ],
      "total": 145,
      "page": 0,
      "limit": 20,
      "hasMore": true
    },
    "suggestionsResponse": [
      {
        "id": "550e8400-e29b-41d4-a716-446655440000",
        "name": "iPhone 15 Pro",
        "description": "Latest iPhone with A17 Pro chip, 256GB storage",
        "defaultPrice": 1200.00,
        "lastSellPrice": 1200.00,
        "productPhotos": [
          {
            "id": "770e8400-e29b-41d4-a716-446655440002",
            "url": "https://example.com/images/iphone15pro-front.jpg"
          }
        ],
        "isActive": true,
        "usageCount": 42
      },
      {
        "id": "550e8400-e29b-41d4-a716-446655440005",
        "name": "iPhone 15",
        "description": "iPhone 15 with A16 Bionic chip, 128GB storage",
        "defaultPrice": 999.00,
        "lastSellPrice": 999.00,
        "productPhotos": [
          {
            "id": "770e8400-e29b-41d4-a716-446655440006",
            "url": "https://example.com/images/iphone15.jpg"
          }
        ],
        "isActive": true,
        "usageCount": 28
      }
    ]
  },
  "deliveryIntegrationExample": {
    "description": "Using searched product in delivery creation",
    "steps": [
      "1. Search for product: GET /api/products/search?query=iPhone",
      "2. Select product from results",
      "3. Create delivery with product details"
    ],
    "deliveryPayload": {
      "receiverPhone": "012345678",
      "receiverName": "John Doe",
      "deliveryType": "COMPANY",
      "companyName": "Fast Delivery Co.",
      "companyPhone": "023456789",
      "paymentMethod": "COD",
      "pickupAddress": "123 Main St",
      "pickupProvince": "Phnom Penh",
      "pickupDistrict": "Chamkar Mon",
      "deliveryAddress": "456 Second Ave",
      "deliveryProvince": "Phnom Penh",
      "deliveryDistrict": "Toul Kork",
      "deliveryFee": 5.00,
      "deliveryDiscount": 0.00,
      "orderDiscount": 0.00,
      "specialInstructions": "Call before delivery",
      "items": [
        {
          "productId": "550e8400-e29b-41d4-a716-446655440000",
          "productName": "iPhone 15 Pro",
          "itemDescription": "iPhone 15 Pro, 256GB, Blue Titanium",
          "price": 1200.00,
          "itemDiscount": 50.00,
          "quantity": 1,
          "paymentMethod": "PAID",
          "itemPhotos": [
            "https://example.com/images/iphone15pro-front.jpg",
            "https://example.com/images/iphone15pro-back.jpg"
          ]
        }
      ]
    }
  },
  "frontendUsageExample": {
    "description": "JavaScript/TypeScript example for frontend integration",
    "code": "// 1. Search for products\nconst searchProducts = async (query) => {\n  const response = await fetch(\n    `/api/products/search?query=${encodeURIComponent(query)}&published=true&limit=10`,\n    { headers: { 'Authorization': `Bearer ${token}` } }\n  );\n  return response.json();\n};\n\n// 2. Get autocomplete suggestions\nconst getSuggestions = async (query) => {\n  if (query.length < 2) return [];\n  const response = await fetch(\n    `/api/products/suggestions?query=${encodeURIComponent(query)}`,\n    { headers: { 'Authorization': `Bearer ${token}` } }\n  );\n  return response.json();\n};\n\n// 3. Load more products (pagination)\nconst loadMoreProducts = async (page, filters) => {\n  const params = new URLSearchParams({\n    page: page.toString(),\n    limit: '20',\n    ...filters\n  });\n  const response = await fetch(\n    `/api/products/search?${params}`,\n    { headers: { 'Authorization': `Bearer ${token}` } }\n  );\n  return response.json();\n};\n\n// 4. Use product in delivery creation\nconst createDeliveryWithProduct = async (product, receiverInfo) => {\n  const payload = {\n    ...receiverInfo,\n    items: [{\n      productId: product.id,\n      productName: product.name,\n      itemDescription: product.description,\n      price: product.defaultPrice,\n      quantity: 1,\n      itemPhotos: product.productPhotos.map(p => p.url)\n    }]\n  };\n  \n  const response = await fetch('/api/deliveries', {\n    method: 'POST',\n    headers: {\n      'Authorization': `Bearer ${token}`,\n      'Content-Type': 'application/json'\n    },\n    body: JSON.stringify(payload)\n  });\n  return response.json();\n};"
  }
}
